/var/www/coffeecounter/python/myfunctions.py:44: RuntimeWarning: This channel is already in use, continuing anyway.  Use GPIO.setwarnings(False) to disable warnings.
  GPIO.setup(buzzerPin, GPIO.OUT)
/var/www/coffeecounter/python/MFRC522.py:133: RuntimeWarning: This channel is already in use, continuing anyway.  Use GPIO.setwarnings(False) to disable warnings.
  GPIO.setup(self.NRSTPD, GPIO.OUT)
INFO: System Start
Coffeecounter stopped
/var/www/coffeecounter/python/myfunctions.py:44: RuntimeWarning: This channel is already in use, continuing anyway.  Use GPIO.setwarnings(False) to disable warnings.
  GPIO.setup(buzzerPin, GPIO.OUT)
/var/www/coffeecounter/python/MFRC522.py:133: RuntimeWarning: This channel is already in use, continuing anyway.  Use GPIO.setwarnings(False) to disable warnings.
  GPIO.setup(self.NRSTPD, GPIO.OUT)
INFO: System Start
Coffeecounter stopped
INFO: System Start
19920112696
9 - vorhandene ID 
balance : -6.75
19920112696
9 - vorhandene ID 
balance : -7.0
6741342
12 - vorhandene ID 
balance : -0.5
Coffeecounter stopped
  File "/var/www/coffeecounter/python/coffecount.py", line 59
    try:	    
    ^
IndentationError: unexpected indent
  File "/var/www/coffeecounter/python/coffecount.py", line 100
    except Exception as e:
         ^
SyntaxError: invalid syntax
/var/www/coffeecounter/python/myfunctions.py:44: RuntimeWarning: This channel is already in use, continuing anyway.  Use GPIO.setwarnings(False) to disable warnings.
  GPIO.setup(buzzerPin, GPIO.OUT)
INFO: System Start
Coffeecounter stopped
INFO: System Start
22564162111707461
user inserted, id = 22564162111707461
balance : -0.20000000298
22564162111707461
1 - vorhandene ID 
balance : -0.40000000596
22564162111707461
1 - vorhandene ID 
balance : -0.600000008941
22564162111707461
1 - vorhandene ID 
balance : -0.800000011921
Coffeecounter stopped
